Place,Name,BirthYear,Country,BodyweightKg,Squat1Kg,Squat2Kg,Squat3Kg,Best3SquatKg,Bench1Kg,Bench2Kg,Bench3Kg,Best3BenchKg,Deadlift1Kg,Deadlift2Kg,Deadlift3Kg,Best3DeadliftKg,TotalKg,WeightClassKg,Division,Event,Sex,Equipment
1,Chun-Lin Wang,1990,Taiwan,51.2,160,-170,170,170,92.5,97.5,100,100,155,165,172.5,172.5,442.5,52,Sub-Juniors,SBD,M,Single-ply
2,Phillip Rotar,1991,USA,50.9,145,157.5,167.5,167.5,90,-95,-95,90,147.5,162.5,-167.5,162.5,420,52,Sub-Juniors,SBD,M,Single-ply
3,Toshiki Nagumo,1990,Japan,51,130,-145,-145,130,80,90,100,100,160,-170,170,170,400,52,Sub-Juniors,SBD,M,Single-ply
4,David Gianna,1990,France,49.45,120,135,-145,135,75,-82.5,-87.5,75,147.5,157.5,165,165,375,52,Sub-Juniors,SBD,M,Single-ply
1,Vasiliy Dementyev,1989,Russia,55.65,187.5,195,202.5,202.5,107.5,115,-125,115,180,192.5,197.5,197.5,515,56,Sub-Juniors,SBD,M,Single-ply
2,Jacek Olechnio,1989,Poland,55.75,190,200,210,210,95,105,110,110,190,195,-197.5,195,515,56,Sub-Juniors,SBD,M,Single-ply
3,Scott Peisley,1989,Australia,55,130,140,147.5,147.5,90,-95,-97.5,90,195,210,221,221,458.5,56,Sub-Juniors,SBD,M,Single-ply
4,Peter Babej,1989,Slovakia,54.7,140,150,160,160,95,102.5,110,110,150,167.5,-177.5,167.5,437.5,56,Sub-Juniors,SBD,M,Single-ply
5,Zafar Ahmedov,1990,Uzbekistan,55.25,170,-182.5,182.5,182.5,80,90,95,95,160,-167.5,-172.5,160,437.5,56,Sub-Juniors,SBD,M,Single-ply
6,Simonas Lasys,1992,Lithuania,55.7,140,150,-157.5,150,100,107.5,-110,107.5,170,-185,-192.5,170,427.5,56,Sub-Juniors,SBD,M,Single-ply
7,Motohito Kubo,1989,Japan,55.05,145,-155,-155,145,75,80,85,85,175,190,-200,190,420,56,Sub-Juniors,SBD,M,Single-ply
8,Steven Tyers,1990,UK,55.15,115,125,130,130,80,85,90,90,182.5,-185,-185,182.5,402.5,56,Sub-Juniors,SBD,M,Single-ply
9,Jozsef Orosi,1992,Hungary,55.15,140,150,-155,150,90,100,-105,100,150,-162.5,-162.5,150,400,56,Sub-Juniors,SBD,M,Single-ply
10,Takafumi Takeda,1990,Japan,55.55,125,135,-147.5,135,-80,80,90,90,150,160,-170,160,385,56,Sub-Juniors,SBD,M,Single-ply
11,Carter Balaberda,1992,Canada,55.6,155,165,-170,165,95,105,-110,105,90,100,105,105,375,56,Sub-Juniors,SBD,M,Single-ply
DQ,Billy Naquin,1989,USA,53.4,150,-160,160,160,-72.5,-77.5,-77.5,,190,-210,-210,190,,56,Sub-Juniors,SBD,M,Single-ply
1,Wei Huang Shin,1989,Taiwan,59.15,170,180,-185,180,85,90,-92.5,90,185,190,202.5,202.5,472.5,60,Sub-Juniors,SBD,M,Single-ply
2,Dmitriy Kozlov #2,1990,Russia,59.25,175,180,,180,100,105,107.5,107.5,160,170,185,185,472.5,60,Sub-Juniors,SBD,M,Single-ply
3,Yuji Aida,1989,Japan,58.5,140,155,-160,155,85,-95,-95,85,145,150,-160,150,390,60,Sub-Juniors,SBD,M,Single-ply
4,Michael Requier,1991,France,59.75,120,-130,-135,120,80,85,87.5,87.5,130,140,150,150,357.5,60,Sub-Juniors,SBD,M,Single-ply
DQ,John Rounrie,1989,Canada,58.1,-145,-145,-145,,-100,-100,100,100,-110,110,,110,,60,Sub-Juniors,SBD,M,Single-ply
DQ,Nicholas Stevenson,1990,USA,59,-175,175,-190,175,-112.5,-112.5,-112.5,,165,175,187.5,187.5,,60,Sub-Juniors,SBD,M,Single-ply
DQ,Jacques Cilliers Andre,1990,South Africa,59.05,130,137.5,-140,137.5,-97.5,-97.5,-97.5,,-155,155,-162.5,155,,60,Sub-Juniors,SBD,M,Single-ply
1,Sergey Gladkikh,1989,Russia,60.95,245,260,-265,260,145,155,160,160,220,230,235,235,655,67.5,Sub-Juniors,SBD,M,Single-ply
2,Mykola Barannik,1989,Ukraine,66.75,240,252.5,-262.5,252.5,140,150,162.5,162.5,210,227.5,-242.5,227.5,642.5,67.5,Sub-Juniors,SBD,M,Single-ply
3,Sven Gäde,1989,Germany,66.45,-215,-215,215,215,130,-137.5,-145,130,215,230,235,235,580,67.5,Sub-Juniors,SBD,M,Single-ply
4,Vadzim Bizukovich,1989,Belarus,66.3,-230,230,-245,230,135,-137.5,137.5,137.5,210,-220,-220,210,577.5,67.5,Sub-Juniors,SBD,M,Single-ply
5,Nathan Hendrickson,1989,USA,67,-190,192.5,200,200,110,115,125,125,212.5,222.5,-235,222.5,547.5,67.5,Sub-Juniors,SBD,M,Single-ply
6,Gergely Kalmar,1990,Hungary,66.55,190,210,-220,210,110,115,-120,115,180,-195,-195,180,505,67.5,Sub-Juniors,SBD,M,Single-ply
7,Zoran Gattermaier,1989,Austria,67.15,185,-192.5,-192.5,185,112.5,117.5,-122.5,117.5,185,195,-200,195,497.5,67.5,Sub-Juniors,SBD,M,Single-ply
8,Takahiro Yokoyama,1989,Japan,65.5,160,175,185,185,90,100,-107.5,100,170,-185,195,195,480,67.5,Sub-Juniors,SBD,M,Single-ply
9,Julien El Khatib,1990,France,66.75,190,-205,-220,190,100,-107.5,-107.5,100,175,182.5,190,190,480,67.5,Sub-Juniors,SBD,M,Single-ply
10,Peter Moravcik,1989,Slovakia,66.95,160,170,-180,170,85,92.5,97.5,97.5,170,180,185,185,452.5,67.5,Sub-Juniors,SBD,M,Single-ply
11,Guillaume Thein,1991,France,65.45,140,147.5,157.5,157.5,-82.5,82.5,92.5,92.5,175,185,-200,185,435,67.5,Sub-Juniors,SBD,M,Single-ply
12,Ronald Bazso,1989,Hungary,65.95,100,120,-130,120,152.5,160,-162.5,160,100,-120,130,130,410,67.5,Sub-Juniors,SBD,M,Single-ply
DQ,Kristoffer Ahlman,1989,Sweden,64.1,-175,-175,175,175,-137.5,-137.5,-137.5,,180,195,-202.5,195,,67.5,Sub-Juniors,SBD,M,Single-ply
DQ,Yoshito Nishimura,1990,Japan,64.7,190,-205,-210,190,-140,-145,-145,,205,-215,-215,205,,67.5,Sub-Juniors,SBD,M,Single-ply
DQ,Alo Kauber,1989,Estonia,66.55,215,225,235,235,-157.5,-162.5,-162.5,,195,210,-217.5,210,,67.5,Sub-Juniors,SBD,M,Single-ply
DQ,Tuomas Tolvanen,1989,Finland,66.65,-205,-205,-205,,-115,115,,115,225,-232.5,-232.5,225,,67.5,Sub-Juniors,SBD,M,Single-ply
1,Andrew Hollenbeck,1989,USA,73.3,240,247.5,-257.5,247.5,-167.5,-167.5,167.5,167.5,257.5,272.5,-293,272.5,687.5,75,Sub-Juniors,SBD,M,Single-ply
2,Oleg Dremezov,1989,Russia,74.75,260,-270,270,270,-150,-150,150,150,240,255,-270,255,675,75,Sub-Juniors,SBD,M,Single-ply
3,Vasiliy Babinov,1990,Russia,67.85,245,260,270,270,145,-157.5,-160,145,220,235,-245,235,650,75,Sub-Juniors,SBD,M,Single-ply
4,Maciej Bielski,1990,Poland,74.55,-245,245,-260,245,115,130,-140,130,220,230,-250,230,605,75,Sub-Juniors,SBD,M,Single-ply
5,Sebastian Ciechanowicz,1989,Poland,71,210,225,-235,225,135,145,-155,145,205,220,-235,220,590,75,Sub-Juniors,SBD,M,Single-ply
6,Sarel Pretoruis,1990,South Africa,71.6,195,-210,-210,195,125,135,140,140,-210,210,-225,210,545,75,Sub-Juniors,SBD,M,Single-ply
7,Martin Lux,1989,Germany,74.5,190,200,210,210,105,-115,-115,105,195,-205,215,215,530,75,Sub-Juniors,SBD,M,Single-ply
8,Alexander Huber,1990,Austria,73.25,180,187.5,197.5,197.5,120,127.5,135,135,185,195,-200,195,527.5,75,Sub-Juniors,SBD,M,Single-ply
9,Daigoro Kitagawa,1991,Japan,74.65,165,175,180,180,-145,145,-155,145,160,175,182.5,182.5,507.5,75,Sub-Juniors,SBD,M,Single-ply
10,Scott Sales,1990,UK,74,160,170,-180,170,-115,115,120,120,205,215,-217.5,215,505,75,Sub-Juniors,SBD,M,Single-ply
11,Shaun Doble,1989,UK,73.95,-175,175,-180,175,-100,100,-107.5,100,190,200,207.5,207.5,482.5,75,Sub-Juniors,SBD,M,Single-ply
12,Joel Ridings,1989,Australia,73.35,-185,192.5,-205,192.5,112.5,-120,-125,112.5,170,-185,-185,170,475,75,Sub-Juniors,SBD,M,Single-ply
13,Kalyan Karde,1989,India,74.1,-160,160,-165,160,120,-140,-140,120,170,180,-190,180,460,75,Sub-Juniors,SBD,M,Single-ply
14,Maxime Herrgott,1991,France,73.4,150,162.5,-172.5,162.5,80,90,100,100,155,175,185,185,447.5,75,Sub-Juniors,SBD,M,Single-ply
DQ,Aimar Kkuusnomm,1990,Estonia,71.2,205,220,235,235,-152.5,-152.5,-152.5,,210,220,232.5,232.5,,75,Sub-Juniors,SBD,M,Single-ply
DQ,Kęstutis Vansevičius,1989,Lithuania,74.3,-250,-250,-250,,-160,-165,-165,,,,,,,75,Sub-Juniors,SBD,M,Single-ply
DQ,Sergejs Ivaņušins,1990,Latvia,74.4,-220,-230,-230,,-147.5,160,162.5,162.5,150,200,,200,,75,Sub-Juniors,SBD,M,Single-ply
DQ,Singh Arora Inderpreet,1991,Canada,74.95,-150,-160,-160,,-75,-75,-75,,,,,,,75,Sub-Juniors,SBD,M,Single-ply
DD,Jaco De Waal Pieter,1989,South Africa,74.3,250,273.5,-280,273.5,150,160,-162.5,160,260,-275,275,275,,75,Sub-Juniors,SBD,M,Single-ply
1,Mykola Chikanyov,1989,Ukraine,79,255,270,275,275,165,-172.5,172.5,172.5,250,255,265,265,712.5,82.5,Sub-Juniors,SBD,M,Single-ply
2,Sergei Vaigant,1989,Kazakhstan,82,220,230,-235,230,-205,210,217.5,217.5,240,255,-265,255,702.5,82.5,Sub-Juniors,SBD,M,Single-ply
3,Johan Smith,1991,South Africa,77,250,-270,270,270,140,155,-160,155,230,245,-260,245,670,82.5,Sub-Juniors,SBD,M,Single-ply
4,Krzysztof Wierzbicki,1990,Poland,78.65,230,240,-250,240,140,-150,150,150,280,-290,-290,280,670,82.5,Sub-Juniors,SBD,M,Single-ply
5,Pradeep Kumar,1989,India,77.75,240,-265,-270,240,-145,155,-160,155,240,-250,252.5,252.5,647.5,82.5,Sub-Juniors,SBD,M,Single-ply
6,Isak Barneheim,1989,Sweden,78.45,-255,-255,255,255,125,140,142.5,142.5,220,235,-247.5,235,632.5,82.5,Sub-Juniors,SBD,M,Single-ply
7,Bernhard Berger,1989,Austria,81.25,220,235,245,245,140,147.5,-150,147.5,225,232.5,237.5,237.5,630,82.5,Sub-Juniors,SBD,M,Single-ply
8,Jonathan Biggin,1989,UK,80.8,220,230,-235,230,-150,150,-165,150,240,-250,-250,240,620,82.5,Sub-Juniors,SBD,M,Single-ply
9,Ainis Stagars,1989,Latvia,80.75,232.5,-240,-240,232.5,-135,135,142.5,142.5,240,-255,-255,240,615,82.5,Sub-Juniors,SBD,M,Single-ply
10,Jerome Wendt,1989,France,81.25,-225,-225,225,225,127.5,135,142.5,142.5,240,-255,-262.5,240,607.5,82.5,Sub-Juniors,SBD,M,Single-ply
11,Markus Peikert,1989,Germany,81.6,210,-220,220,220,-140,-140,145,145,210,220,-245,220,585,82.5,Sub-Juniors,SBD,M,Single-ply
12,Florian Plat Monin,1989,France,82.25,200,212.5,220,220,120,127.5,132.5,132.5,210,220,230,230,582.5,82.5,Sub-Juniors,SBD,M,Single-ply
13,Tibor Maczak,1989,Hungary,80.75,180,-190,-190,180,150,-157.5,157.5,157.5,180,190,-200,190,527.5,82.5,Sub-Juniors,SBD,M,Single-ply
14,Hermanus Lintvelt,1989,South Africa,80.55,170,190,200,200,105,115,120,120,195,205,-212.5,205,525,82.5,Sub-Juniors,SBD,M,Single-ply
15,Hanmghar Tushar,1989,India,77.8,150,-180,-200,150,120,130,-147.5,130,-180,-180,180,180,460,82.5,Sub-Juniors,SBD,M,Single-ply
DQ,Hikari Nabekura,1989,Japan,80.5,190,200,-207.5,200,-125,-125,-125,,190,200,210,210,,82.5,Sub-Juniors,SBD,M,Single-ply
DQ,Sergey Sukhodolin,1989,Russia,81.3,280,-290,290,290,-170,-175,-182.5,,242.5,255,-265,255,,82.5,Sub-Juniors,SBD,M,Single-ply
DQ,Priit Paakspuu,1989,Estonia,81.95,240,252.5,-262.5,252.5,-180,-180,-180,,210,230,-245,230,,82.5,Sub-Juniors,SBD,M,Single-ply
1,Ali Ben Hadj,1989,France,88.25,280,300,-312.5,300,180,187.5,-192.5,187.5,280,-300,300,300,787.5,90,Sub-Juniors,SBD,M,Single-ply
2,Artsiom Kasperovich,1989,Belarus,89.2,245,260,-270,260,180,-187.5,-187.5,180,235,247.5,-252.5,247.5,687.5,90,Sub-Juniors,SBD,M,Single-ply
3,Vili Honkanen,1989,Finland,87.9,220,227.5,-232.5,227.5,-182.5,182.5,-187.5,182.5,250,255,-260,255,665,90,Sub-Juniors,SBD,M,Single-ply
4,Mike MacDonald #2,1989,Canada,88.25,200,215,-227.5,215,142.5,-150,-152.5,142.5,-250,250,260,260,617.5,90,Sub-Juniors,SBD,M,Single-ply
5,Marek Sala,1989,Czechia,87.25,230,240,-247.5,240,130,140,-150,140,220,-230,230,230,610,90,Sub-Juniors,SBD,M,Single-ply
6,Shane Lowe,1989,New Zealand,85.9,230,245,-255,245,-130,130,-147.5,130,200,215,227.5,227.5,602.5,90,Sub-Juniors,SBD,M,Single-ply
7,Marcin Skowroński,1990,Poland,86.1,210,220,230,230,130,140,-145,140,220,-230,230,230,600,90,Sub-Juniors,SBD,M,Single-ply
8,Charlie Thyrrestrup,1989,Denmark,87.75,200,-215,-220,200,135,142.5,-147.5,142.5,200,-212.5,-212.5,200,542.5,90,Sub-Juniors,SBD,M,Single-ply
9,Madis Vanatoa,1989,Estonia,86.8,200,-215,-215,200,125,132.5,-135,132.5,190,200,-210,200,532.5,90,Sub-Juniors,SBD,M,Single-ply
1,Rait Sagor,1990,Estonia,93.9,-260,-270,275,275,170,180,185,185,285,-300,-300,285,745,100,Sub-Juniors,SBD,M,Single-ply
2,Wei-Wen Hsiao,1989,Taiwan,95.45,265,280,292.5,292.5,150,165,-172.5,165,240,250,262.5,262.5,720,100,Sub-Juniors,SBD,M,Single-ply
3,Bartlomiej Zajaczkowski,1989,Poland,91.95,270,-290,-290,270,160,172.5,-180,172.5,260,275,-302.5,275,717.5,100,Sub-Juniors,SBD,M,Single-ply
4,Marcus Bottcher,1990,Germany,97.25,275,285,-290,285,160,167.5,172.5,172.5,240,250,-262.5,250,707.5,100,Sub-Juniors,SBD,M,Single-ply
5,Daniel Dinh,1989,France,92.05,250,265,285,285,125,135,-142.5,135,235,255,-265,255,675,100,Sub-Juniors,SBD,M,Single-ply
6,Torben Olsson,1989,Netherlands,98.1,215,230,240,240,140,150,-155,150,215,230,-232.5,230,620,100,Sub-Juniors,SBD,M,Single-ply
7,Mateusz Kraska,1990,Poland,90.01,205,-215,-220,205,115,120,-125,120,-235,-235,235,235,560,100,Sub-Juniors,SBD,M,Single-ply
DQ,Gabor Laczka,1989,Hungary,93.35,-230,-240,-240,,155,165,-180,165,230,240,-260,240,,100,Sub-Juniors,SBD,M,Single-ply
1,Damir Trokic,1989,Sweden,109,270,290,-300,290,182.5,-187.5,187.5,187.5,250,272.5,-282.5,272.5,750,110,Sub-Juniors,SBD,M,Single-ply
2,Imants Sokolovs,1989,Latvia,100.81,-250,250,-260,250,165,-172.5,172.5,172.5,235,245,-252.5,245,667.5,110,Sub-Juniors,SBD,M,Single-ply
3,Viktor Jundt,1989,Germany,103.65,230,250,-255,250,-170,170,175,175,200,215,220,220,645,110,Sub-Juniors,SBD,M,Single-ply
4,Takahiro Mori,1989,Japan,100.45,220,240,250,250,145,165,-172.5,165,202.5,-225,-225,202.5,617.5,110,Sub-Juniors,SBD,M,Single-ply
DQ,David Kovacs,1989,Hungary,103.4,-240,-240,-245,,145,-160,-170,145,180,200,220,220,,110,Sub-Juniors,SBD,M,Single-ply
1,Viktor Testsov,1989,Ukraine,120,280,300,330,330,230,250,260,260,260,285,300,300,890,125,Sub-Juniors,SBD,M,Single-ply
2,Veiko Tsarents,1990,Estonia,117.3,200,-210,,200,125,-135,,125,240,255,-262.5,255,580,125,Sub-Juniors,SBD,M,Single-ply
DQ,Timo Ruotsalainen,1990,Finland,115.7,-290,-300,-310,,130,-180,-185,130,230,242.5,-255,242.5,,125,Sub-Juniors,SBD,M,Single-ply
1,Kevin McCusker,1989,USA,125.6,-240,-240,242.5,242.5,142.5,152.5,160,160,-240,240,-281,240,642.5,125+,Sub-Juniors,SBD,M,Single-ply
2,Zoltan Hadi,1989,Hungary,155.8,190,220,242.5,242.5,130,140,-155,140,190,200,-242.5,200,582.5,125+,Sub-Juniors,SBD,M,Single-ply
1,Wei-Jou Chen,1991,Taiwan,41.6,110,115,-120,115,50,52.5,55,55,110,117.5,122.5,122.5,292.5,44,Sub-Juniors,SBD,F,Single-ply
2,Katarina Skirkanicova,1990,Slovakia,42.95,107.5,-115,-115,107.5,50,55,60,60,107.5,-115,115,115,282.5,44,Sub-Juniors,SBD,F,Single-ply
3,Victoria Fadgyas,1991,Hungary,43.8,70,85,95,95,60,-67.5,67.5,67.5,90,100,-110,100,262.5,44,Sub-Juniors,SBD,F,Single-ply
4,Chloe Lambeth,1991,UK,42.5,80,85,95,95,32.5,37.5,40,40,100,107.5,112.5,112.5,247.5,44,Sub-Juniors,SBD,F,Single-ply
1,Alexa Schillinger,1991,USA,46.3,120,-127.5,-127.5,120,60,-62.5,62.5,62.5,125,135,-140,135,317.5,48,Sub-Juniors,SBD,F,Single-ply
2,Yasuko Miki,1990,Japan,44.45,75,85,-95,85,45,55,-60,55,90,100,105,105,245,48,Sub-Juniors,SBD,F,Single-ply
DQ,Ivana Porubska,1991,Slovakia,46.95,-117.5,-117.5,-117.5,,-60,60,65,65,105,-110,-110,105,,48,Sub-Juniors,SBD,F,Single-ply
1,Kendra Miller,1992,USA,51.5,135,145,-150,145,65,70,72.5,72.5,135,142.5,-147.5,142.5,360,52,Sub-Juniors,SBD,F,Single-ply
2,Irina Efimova,1989,Russia,51.2,122.5,130,135,135,60,65,-67.5,65,120,127.5,130,130,330,52,Sub-Juniors,SBD,F,Single-ply
3,Elina Auvinen,1989,Finland,51.5,120,127.5,132.5,132.5,50,-52.5,-52.5,50,122.5,127.5,132.5,132.5,315,52,Sub-Juniors,SBD,F,Single-ply
4,Marina Watanabe,1989,Japan,51.5,105,-110,110,110,65,70,75,75,105,115,120,120,305,52,Sub-Juniors,SBD,F,Single-ply
5,Sonia Bekhti,1989,France,51.3,75,90,100,100,-50,-50,50,50,80,92.5,-100,92.5,242.5,52,Sub-Juniors,SBD,F,Single-ply
1,Momoko Sugo,1990,Japan,52.6,100,115,-120,115,60,-70,-70,60,120,127.5,-132.5,127.5,302.5,56,Sub-Juniors,SBD,F,Single-ply
2,Laura Gouraud,1990,France,53.15,-75,-75,75,75,30,35,42.5,42.5,100,120,135,135,252.5,56,Sub-Juniors,SBD,F,Single-ply
DQ,Dominika Hoisikova,1991,Slovakia,53.1,-140,-140,-140,,70,-72.5,72.5,72.5,110,-120,-122.5,110,,56,Sub-Juniors,SBD,F,Single-ply
DQ,Elizabeth Houle,1989,USA,55.35,-122.5,-122.5,-122.5,,-55,55,-57.5,55,122.5,-142.5,,122.5,,56,Sub-Juniors,SBD,F,Single-ply
1,Júlia Kostúrová,1989,Slovakia,59.3,-135,135,145,145,85,-92.5,92.5,92.5,130,142.5,147.5,147.5,385,60,Sub-Juniors,SBD,F,Single-ply
2,Emmanuelle Jaworski,1989,France,56.3,-115,115,127.5,127.5,55,60,-65,60,125,135,140,140,327.5,60,Sub-Juniors,SBD,F,Single-ply
3,Samanta Kondratenko,1990,Lithuania,57.7,110,-120,-120,110,55,60,62.5,62.5,135,145,-150,145,317.5,60,Sub-Juniors,SBD,F,Single-ply
4,Ariane Schmelzenbart,1990,Austria,57.25,-115,115,-122.5,115,55,-60,60,60,100,110,-120,110,285,60,Sub-Juniors,SBD,F,Single-ply
5,Marina Kainleinsberger,1990,Austria,59.6,95,-100,105,105,60,65,-67.5,65,95,100,107.5,107.5,277.5,60,Sub-Juniors,SBD,F,Single-ply
6,Anne-Sophie Liagre,1991,France,59.45,87.5,100,105,105,50,-60,60,60,90,100,110,110,275,60,Sub-Juniors,SBD,F,Single-ply
DQ,Jacinta Read,1989,Australia,56.6,-110,-115,-115,,-67.5,67.5,70,70,110,-120,-120,110,,60,Sub-Juniors,SBD,F,Single-ply
1,Yu-Chun Kuo,1989,Taiwan,66.15,172.5,180,-187.5,180,95,-100,100,100,175,-177.5,-182.5,175,455,67.5,Sub-Juniors,SBD,F,Single-ply
2,Maria Gulidova,1989,Russia,64.6,-170,-175,175,175,90,100,105,105,155,-175,-175,155,435,67.5,Sub-Juniors,SBD,F,Single-ply
3,Lucia Grobarova,1989,Slovakia,66.35,125,135,145,145,60,70,-72.5,70,110,125,140,140,355,67.5,Sub-Juniors,SBD,F,Single-ply
4,Nora Tibori,1989,Hungary,66.45,75,87.5,92.5,92.5,72.5,-80,80,80,90,100,-112.5,100,272.5,67.5,Sub-Juniors,SBD,F,Single-ply
5,Laura Le Du,1991,France,63.75,85,95,105,105,40,50,-55,50,90,105,-117.5,105,260,67.5,Sub-Juniors,SBD,F,Single-ply
1,Yulia Chistiakova,1989,Russia,68.1,-175,175,185,185,105,112.5,117.5,117.5,145,155,-160,155,457.5,75,Sub-Juniors,SBD,F,Single-ply
2,Lena Watson,1989,USA,70,170,180,-185,180,85,95,102.5,102.5,165,-177.5,-177.5,165,447.5,75,Sub-Juniors,SBD,F,Single-ply
3,Marzena Piter,1989,Poland,70,135,145,-152.5,145,70,77.5,80,80,145,150,155,155,380,75,Sub-Juniors,SBD,F,Single-ply
4,Eva Jeskova,1989,Slovakia,68.45,125,-135,135,135,72.5,77.5,82.5,82.5,125,140,145,145,362.5,75,Sub-Juniors,SBD,F,Single-ply
1,Brandi Decker,1991,USA,75.95,150,162.5,177.5,177.5,67.5,75,82.5,82.5,150,165,167.5,167.5,427.5,82.5,Sub-Juniors,SBD,F,Single-ply
2,Olga Tikhomirova,1989,Russia,76.8,160,172.5,180,180,82.5,-87.5,-87.5,82.5,-162.5,-162.5,165,165,427.5,82.5,Sub-Juniors,SBD,F,Single-ply
3,You-Chia Chen,1990,Taiwan,80.2,155,162.5,170,170,72.5,80,-85,80,-152.5,152.5,160,160,410,82.5,Sub-Juniors,SBD,F,Single-ply
4,Amanda Moe,1990,USA,81.6,155,162.5,-165,162.5,77.5,-82.5,-82.5,77.5,150,157.5,-172.5,157.5,397.5,82.5,Sub-Juniors,SBD,F,Single-ply
5,Alexandra Tichy,1990,Austria,75.25,130,140,-145,140,90,95,-97.5,95,130,140,145,145,380,82.5,Sub-Juniors,SBD,F,Single-ply
6,Katarzyna Pulut,1990,Poland,75.4,130,140,147.5,147.5,42.5,47.5,50,50,120,130,137.5,137.5,335,82.5,Sub-Juniors,SBD,F,Single-ply
7,Misaki Onoe,1990,Japan,75.1,-110,110,120,120,40,50,-60,50,100,120,-130,120,290,82.5,Sub-Juniors,SBD,F,Single-ply
1,Ashley Kueffer,1989,USA,88.9,185,-192.5,-192.5,185,132.5,-135,-135,132.5,132.5,142.5,-157.5,142.5,460,90,Sub-Juniors,SBD,F,Single-ply
2,Amaia De Betono,1990,France,84.35,80,92.5,110,110,75,85,-92.5,85,95,105,-120,105,300,90,Sub-Juniors,SBD,F,Single-ply
3,Aurore Choron,1990,France,83.05,70,90,-115,90,50,55,62.5,62.5,110,120,-130,120,272.5,90,Sub-Juniors,SBD,F,Single-ply
1,Monique Horsay,1989,Germany,105.35,170,180,185,185,110,115,120,120,160,170,175,175,480,90+,Sub-Juniors,SBD,F,Single-ply
2,Crystal Costello,1990,USA,121.7,-172.5,172.5,190,190,-92.5,92.5,95,95,170,182.5,-197.5,182.5,467.5,90+,Sub-Juniors,SBD,F,Single-ply
1,Mikhail Dostovalov,1985,Russia,51.7,180,-195,195,195,105,115,-120,115,195,205,-215,205,515,52,Juniors,SBD,M,Single-ply
2,Evgeniy Kalabin,1986,Russia,51.9,175,-185,-185,175,120,-130,130,130,180,185,-190,185,490,52,Juniors,SBD,M,Single-ply
3,Yuki Ozeki,1984,Japan,50.9,155,162.5,-175,162.5,105,110,115,115,160,167.5,175,175,452.5,52,Juniors,SBD,M,Single-ply
4,Jakub Synak,1984,Poland,52,155,162.5,167.5,167.5,100,-105,105,105,162.5,172.5,-182.5,172.5,445,52,Juniors,SBD,M,Single-ply
1,Vitaliy Poberezhny,1984,Russia,55.8,210,220,225,225,130,135,140,140,195,202.5,-210,202.5,567.5,56,Juniors,SBD,M,Single-ply
2,Sergey Levin,1987,Russia,55.4,-200,200,-210,200,140,150,-157.5,150,195,205,-210,205,555,56,Juniors,SBD,M,Single-ply
3,Tomasz Zambrzycki,1985,Poland,55.8,200,-210,-210,200,102.5,110,-112.5,110,200,210,215,215,525,56,Juniors,SBD,M,Single-ply
4,Masahiro Nagata,1987,Japan,54.7,140,150,-155,150,130,140,-150,140,140,155,160,160,450,56,Juniors,SBD,M,Single-ply
5,Jeremy Freeman,1986,USA,54.25,167.5,-172.5,-172.5,167.5,100,107.5,-115,107.5,150,-165,-175,150,425,56,Juniors,SBD,M,Single-ply
1,Alexander Kolbin,1987,Russia,60,230,250,-270,250,140,150,-155,150,250,-265,,250,650,60,Juniors,SBD,M,Single-ply
2,Nelson Boutte,1988,USA,59.5,212.5,227.5,242.5,242.5,122.5,127.5,-132.5,127.5,210,-225,-225,210,580,60,Juniors,SBD,M,Single-ply
3,Rémi Bhang,1984,France,59.5,210,-225,230,230,-112.5,112.5,-120,112.5,210,222.5,232.5,232.5,575,60,Juniors,SBD,M,Single-ply
4,Michael Haffenbrack,1984,USA,59.15,212.5,222.5,-227.5,222.5,-120,-122.5,122.5,122.5,212.5,222.5,227.5,227.5,572.5,60,Juniors,SBD,M,Single-ply
5,Peter Lipcsei,1988,Hungary,59,-145,145,-155,145,100,117.5,-125,117.5,145,157.5,-165,157.5,420,60,Juniors,SBD,M,Single-ply
DQ,Kentaro Nagase,1986,Japan,59.45,180,192.5,-200,192.5,-117.5,-120,-120,,190,205,-222.5,205,,60,Juniors,SBD,M,Single-ply
DQ,Tamas Horvath,1985,Hungary,59.65,-140,-140,-140,,120,130,-135,130,-140,140,160,160,,60,Juniors,SBD,M,Single-ply
1,Arthur Mashinskiy,1987,Russia,65.95,250,260,-265,260,165,170,175,175,250,265,-280,265,700,67.5,Juniors,SBD,M,Single-ply
2,Vincent Niedoliwka,1985,USA,67,237.5,-247.5,247.5,247.5,-150,150,155,155,252.5,260,-267.5,260,662.5,67.5,Juniors,SBD,M,Single-ply
3,Petteri Keränen,1987,Finland,67.1,222.5,-237.5,237.5,237.5,145,-152.5,152.5,152.5,240,247.5,257.5,257.5,647.5,67.5,Juniors,SBD,M,Single-ply
4,François Pellegrino,1988,France,66.95,225,240,247.5,247.5,150,157.5,-162.5,157.5,230,240,-245,240,645,67.5,Juniors,SBD,M,Single-ply
5,Harry Shomalistos,1987,South Africa,65.45,200,-215,220,220,140,150,155,155,240,250,260,260,635,67.5,Juniors,SBD,M,Single-ply
6,Janis Stelmahs,1988,Latvia,66.85,205,215,-220,215,182.5,187.5,-192.5,187.5,205,210,-215,210,612.5,67.5,Juniors,SBD,M,Single-ply
7,Brice Bourdeau,1984,France,66.1,210,-220,225,225,130,137.5,-140,137.5,220,-230,-230,220,582.5,67.5,Juniors,SBD,M,Single-ply
8,Yuki Zukeran,1988,Japan,65.35,-190,-200,200,200,160,170,180,180,180,200,-220,200,580,67.5,Juniors,SBD,M,Single-ply
9,Alexander Denk,1986,Germany,66.5,190,200,-210,200,-150,-150,150,150,210,-220,-220,210,560,67.5,Juniors,SBD,M,Single-ply
10,Kazuhiro Takahashi,1985,Japan,66.55,190,-200,200,200,125,130,-137.5,130,220,-230,-250,220,550,67.5,Juniors,SBD,M,Single-ply
11,Michel Ehrlicher,1985,Germany,66.45,195,202.5,,202.5,110,115,-117.5,115,205,225,-245,225,542.5,67.5,Juniors,SBD,M,Single-ply
12,Darren Chiu,1984,Canada,64.15,180,190,-200,190,120,-125,125,125,175,195,215,215,530,67.5,Juniors,SBD,M,Single-ply
13,Attila Dudoma,1988,Hungary,66.55,100,110,-120,110,135,142.5,145,145,120,130,140,140,395,67.5,Juniors,SBD,M,Single-ply
DQ,Chih-Lun Su,1984,Taiwan,64.75,225,-235,-235,225,-155,-155,-155,,235,247.5,-250,247.5,,67.5,Juniors,SBD,M,Single-ply
DQ,Szymon Synak,1985,Poland,65.1,210,220,-230,220,-145,-145,-145,,210,-222.5,-222.5,210,,67.5,Juniors,SBD,M,Single-ply
DQ,Andrei Koplik,1987,Estonia,66.95,-210,-210,-210,,-157.5,157.5,162.5,162.5,-195,-195,-195,,,67.5,Juniors,SBD,M,Single-ply
DQ,Csaba Foldvari,1985,Hungary,67,120,130,-140,130,-155,-155,-155,,180,190,-195,190,,67.5,Juniors,SBD,M,Single-ply
1,Denis Varyukhin,1986,Russia,74.3,275,-290,295,295,170,180,190,190,245,252.5,-257.5,252.5,737.5,75,Juniors,SBD,M,Single-ply
2,Evaldas Paplauskas,1984,Lithuania,73.9,245,252.5,-260,252.5,205,-215,220,220,230,240,247.5,247.5,720,75,Juniors,SBD,M,Single-ply
3,Toru Miyake,1985,Japan,74.35,230,-245,245,245,215,225,243.5,243.5,200,217.5,230,230,718.5,75,Juniors,SBD,M,Single-ply
4,Eduardo Kirino,1984,Brazil,74.7,250,270,-277.5,270,-170,-170,170,170,232.5,-250,-250,232.5,672.5,75,Juniors,SBD,M,Single-ply
5,Simen Imingen,1987,Norway,74.6,252.5,260,-265,260,162.5,167.5,-170,167.5,242.5,-247.5,-247.5,242.5,670,75,Juniors,SBD,M,Single-ply
6,Samuel Lappalainen,1986,Finland,74.4,240,252.5,-257.5,252.5,-150,-150,150,150,240,250,255,255,657.5,75,Juniors,SBD,M,Single-ply
7,James White,1984,UK,74.55,210,220,-230,220,150,160,165,165,267.5,-275,-275,267.5,652.5,75,Juniors,SBD,M,Single-ply
8,Marc Polster,1986,Germany,72.3,250,-265,265,265,145,-155,-155,145,240,-250,-252.5,240,650,75,Juniors,SBD,M,Single-ply
9,Johan Henriksson,1984,Finland,74.35,-230,-230,230,230,150,160,-165,160,240,250,255,255,645,75,Juniors,SBD,M,Single-ply
10,Gueraud Picot,1987,France,73.05,-240,240,255,255,145,-150,150,150,220,230,235,235,640,75,Juniors,SBD,M,Single-ply
11,Koji Yagi,1985,Japan,73.55,-210,210,-225,210,-160,160,-170,160,200,220,-235,220,590,75,Juniors,SBD,M,Single-ply
12,Janos Kovecses,1987,Hungary,75,140,150,160,160,120,140,-150,140,200,215,-220,215,515,75,Juniors,SBD,M,Single-ply
13,Mangesh Dudhane,1988,India,68.65,-120,120,135,135,-70,-70,70,70,140,-155,155,155,360,75,Juniors,SBD,M,Single-ply
DQ,Raigo Kuusnõmm,1988,Estonia,73.3,240,-252.5,-252.5,240,-195,-195,-195,,240,255,-262.5,255,,75,Juniors,SBD,M,Single-ply
1,Emil Johansson,1986,Sweden,79.1,-280,280,292.5,292.5,180,185,-190,185,280,287.5,297.5,297.5,775,82.5,Juniors,SBD,M,Single-ply
2,André Hentschel,1984,Germany,81.85,270,292.5,-295,292.5,210,217.5,222.5,222.5,250,260,-265,260,775,82.5,Juniors,SBD,M,Single-ply
3,Bartłomiej Szymkowiak,1984,Poland,79.5,290,305,310,310,145,-155,155,155,270,280,-290,280,745,82.5,Juniors,SBD,M,Single-ply
4,Maciej Sochacki,1985,Poland,81.9,255,267.5,272.5,272.5,175,-182.5,-195,175,265,280,-285,280,727.5,82.5,Juniors,SBD,M,Single-ply
5,Dmytro Chumakov,1985,Ukraine,81.9,-280,280,290,290,165,-170,-175,165,245,265,-292.5,265,720,82.5,Juniors,SBD,M,Single-ply
6,Marc Benoit,1985,Canada,81.4,-245,245,-255,245,-155,160,-170,160,260,275,-285,275,680,82.5,Juniors,SBD,M,Single-ply
7,Leon Koschnik,1988,Germany,81.7,-240,-240,245,245,160,-165,-165,160,240,255,272.5,272.5,677.5,82.5,Juniors,SBD,M,Single-ply
8,Andras Odor,1985,Hungary,81.25,230,245,-260,245,160,170,180,180,220,240,250,250,675,82.5,Juniors,SBD,M,Single-ply
9,Sergey Gass,1987,Uzbekistan,82,230,255,270,270,140,-147.5,-147.5,140,260,-285,-285,260,670,82.5,Juniors,SBD,M,Single-ply
10,Gil Pinheiro,1987,France,81,245,255,-267.5,255,140,145,150,150,250,262.5,-275,262.5,667.5,82.5,Juniors,SBD,M,Single-ply
11,Kohei Hayashi,1986,Japan,81.5,245,255,-270,255,202.5,210,-217.5,210,200,-215,-217.5,200,665,82.5,Juniors,SBD,M,Single-ply
12,Ettienne Potgieter,1986,South Africa,80.55,190,210,-230,210,150,160,-162.5,160,200,215,-220,215,585,82.5,Juniors,SBD,M,Single-ply
13,Jesse Jamison,1984,Canada,80.8,-212.5,212.5,-230,212.5,102.5,112.5,120,120,212.5,225,230,230,562.5,82.5,Juniors,SBD,M,Single-ply
DQ,Henrik Skov Nielsen,1984,Denmark,82.4,-300,-300,-300,,-160,160,-167.5,160,-240,240,,240,,82.5,Juniors,SBD,M,Single-ply
1,Andrey Ivanets,1984,Belarus,88.52,300,315,320,320,195,202.5,207.5,207.5,300,320,-332.5,320,847.5,90,Juniors,SBD,M,Single-ply
2,Andrey Pankov,1986,Russia,88.94,-280,280,285,285,210,217.5,225,225,300,-320,-320,300,810,90,Juniors,SBD,M,Single-ply
3,Marcin Bielski,1988,Poland,89.17,320,330,-340,330,-170,170,-180,170,290,-312.5,-312.5,290,790,90,Juniors,SBD,M,Single-ply
4,Nicolaj Dahlin,1985,Denmark,88.46,300,-315,315,315,-170,175,-182.5,175,270,280,287.5,287.5,777.5,90,Juniors,SBD,M,Single-ply
5,Muhammed Bilican,1987,Belgium,86.73,-290,300,315,315,190,-200,-212.5,190,240,265,-285,265,770,90,Juniors,SBD,M,Single-ply
6,Juhani Salo,1984,Finland,88.7,-280,285,295,295,155,160,-165,160,290,300,-307.5,300,755,90,Juniors,SBD,M,Single-ply
7,Andy Ly,1985,UK,88.3,265,280,-290,280,160,-180,-180,160,250,265,270,270,710,90,Juniors,SBD,M,Single-ply
8,Nozomu Yoshikawa,1986,Japan,88.64,240,250,-260,250,210,-220,220,220,-235,235,-250,235,705,90,Juniors,SBD,M,Single-ply
9,Mark Gregory,1986,UK,89.28,260,270,,270,175,-185,185,185,235,242.5,250,250,705,90,Juniors,SBD,M,Single-ply
10,Josef Bauer,1984,Germany,89.01,255,-265,,255,-200,200,-210,200,240,-255,-257.5,240,695,90,Juniors,SBD,M,Single-ply
11,Kyohei Kubo,1987,Japan,86.6,260,-275,275,275,180,-200,-200,180,220,235,-250,235,690,90,Juniors,SBD,M,Single-ply
12,Euraima Tobias,1986,South Africa,87.54,-240,240,255,255,150,160,167.5,167.5,240,260,267.5,267.5,690,90,Juniors,SBD,M,Single-ply
13,Luc Benoit,1985,Canada,87.3,240,250,-260,250,-170,-170,170,170,240,252.5,-262.5,252.5,672.5,90,Juniors,SBD,M,Single-ply
14,Johann Enthammer,1987,Austria,87.64,220,227.5,-230,227.5,130,135,-140,135,220,232.5,237.5,237.5,600,90,Juniors,SBD,M,Single-ply
15,Gavane Prassad,1988,India,82.75,160,175,-180,175,110,117.5,-122.5,117.5,170,-190,-190,170,462.5,90,Juniors,SBD,M,Single-ply
DQ,André Justus,1987,Germany,83.41,-255,-255,-255,,130,140,-142.5,140,245,-250,,245,,90,Juniors,SBD,M,Single-ply
DQ,Blake Dedas,1984,USA,87.36,-282.5,-282.5,-282.5,,-180,-180,-180,,262.5,277.5,-300,277.5,,90,Juniors,SBD,M,Single-ply
1,Konstantin Pozdeev,1984,Russia,97.8,340,355,370,370,-200,200,-210,200,320,340,-360,340,910,100,Juniors,SBD,M,Single-ply
2,Magnus Önerud,1986,Sweden,99.6,-320,320,-342.5,320,-205,205,-215,205,310,320,-325,320,845,100,Juniors,SBD,M,Single-ply
3,Jaroslav Mikulanda,1984,Czechia,97.4,270,290,305,305,205,-212.5,-215,205,270,285,-307.5,285,795,100,Juniors,SBD,M,Single-ply
4,Eban Traeger,1984,Australia,99.05,285,300,310,310,-175,180,187.5,187.5,280,-285,-287.5,280,777.5,100,Juniors,SBD,M,Single-ply
5,Jørgen Andreas Hansen,1986,Norway,99.48,295,305,312.5,312.5,182.5,190,-195,190,265,275,-282.5,275,777.5,100,Juniors,SBD,M,Single-ply
6,Robert Spindler,1984,Austria,98.15,250,-260,260,260,182.5,190,195,195,280,-285,-285,280,735,100,Juniors,SBD,M,Single-ply
7,Rainer Raaper,1987,Estonia,98.46,260,-262.5,-270,260,140,150,-160,150,-300,305,312.5,312.5,722.5,100,Juniors,SBD,M,Single-ply
8,Daniel Hennig,1984,Germany,94.96,225,-240,-240,225,140,147.5,-155,147.5,260,275,-282.5,275,647.5,100,Juniors,SBD,M,Single-ply
9,Andreas Lehmann,1984,Germany,98.8,245,265,275,275,135,142.5,-150,142.5,210,-235,-235,210,627.5,100,Juniors,SBD,M,Single-ply
10,Mark Pocak,1984,Austria,98,215,-225,-230,215,150,160,165,165,225,237.5,-240,237.5,617.5,100,Juniors,SBD,M,Single-ply
DQ,Michal Kavecky,1985,Slovakia,92.4,260,280,-300,280,-185,-192.5,-192.5,,280,300,305,305,,100,Juniors,SBD,M,Single-ply
DQ,Amal Dalvi,1987,India,95.96,-210,-210,-217.5,,130,137.5,142.5,142.5,-200,200,207.5,207.5,,100,Juniors,SBD,M,Single-ply
DQ,Mathias Kristiansen,1985,Denmark,97.8,-265,265,-275,265,-180,-180,-180,,,,,,,100,Juniors,SBD,M,Single-ply
1,Valeriy Karpov #1,1984,Ukraine,108.8,340,350,360,360,230,240,245,245,300,320,332.5,332.5,937.5,110,Juniors,SBD,M,Single-ply
2,Marat Chirkov,1984,Russia,109.4,350,-360,-360,350,210,220,225,225,320,332.5,-335,332.5,907.5,110,Juniors,SBD,M,Single-ply
3,Jessie Betzinger,1984,USA,107,340,-347.5,-347.5,340,202.5,-207.5,-207.5,202.5,287.5,297.5,-305,297.5,840,110,Juniors,SBD,M,Single-ply
4,Ben Banks,1984,UK,107.58,260,275,285,285,200,-230,230,230,280,315,-327.5,315,830,110,Juniors,SBD,M,Single-ply
5,Witold Krawczyk,1985,Poland,107.7,310,-320,-320,310,220,-227.5,-227.5,220,280,290,-312.5,290,820,110,Juniors,SBD,M,Single-ply
6,Matiss Peca,1988,Latvia,101.25,300,-325,-340,300,200,-210,-210,200,-260,260,-270,260,760,110,Juniors,SBD,M,Single-ply
7,Jayson Kline,1987,USA,107.27,280,287.5,292.5,292.5,185,192.5,200,200,242.5,-262.5,-270,242.5,735,110,Juniors,SBD,M,Single-ply
8,Luke Pike,1984,Canada,107.35,255,265,-272.5,265,-162.5,167.5,175,175,272.5,287.5,-315,287.5,727.5,110,Juniors,SBD,M,Single-ply
9,Gabor Csik,1987,Hungary,106.5,230,-240,-240,230,215,-230,230,230,190,-205,,190,650,110,Juniors,SBD,M,Single-ply
10,Davinder Lalka,1987,India,106.69,145,155,-170,155,90,100,112.5,112.5,150,165,-180,165,432.5,110,Juniors,SBD,M,Single-ply
DQ,Jere Lietzén,1985,Finland,107.3,-285,-285,-285,,200,210,220,220,-300,-310,-310,,,110,Juniors,SBD,M,Single-ply
DQ,Tanel Mustasaar,1987,Estonia,107.68,-280,-280,-280,,-200,-200,-200,,-300,300,-317.5,300,,110,Juniors,SBD,M,Single-ply
1,Jonathon Krogman,1986,USA,122.29,335,352.5,365,365,202.5,-212.5,212.5,212.5,302.5,315,-332.5,315,892.5,125,Juniors,SBD,M,Single-ply
2,Daniel Grabowski,1986,Poland,124.5,330,340,-355,340,200,215,225,225,290,-317.5,-330,290,855,125,Juniors,SBD,M,Single-ply
3,Haakon Farstad,1985,Norway,121.1,307.5,-317.5,-317.5,307.5,190,195,202.5,202.5,300,-307.5,-307.5,300,810,125,Juniors,SBD,M,Single-ply
4,Adriaan Kleinsmit Ruwan,1987,South Africa,121.7,280,-300,-300,280,-190,190,-200,190,-280,280,-290,280,750,125,Juniors,SBD,M,Single-ply
5,Eugen Schneider,1986,Germany,116.9,-275,275,-295,275,160,-170,170,170,-260,260,-270,260,705,125,Juniors,SBD,M,Single-ply
1,Andrey Ageev,1985,Russia,125.9,340,360,380,380,220,230,240,240,-290,290,310,310,930,125+,Juniors,SBD,M,Single-ply
2,Jaco Claasen,1984,South Africa,125.06,300,320,330,330,200,220,225,225,320,335,-355,335,890,125+,Juniors,SBD,M,Single-ply
3,Jason Byrne #1,1984,Canada,125.7,300,310,320,320,-225,225,232.5,232.5,292.5,300,-305,300,852.5,125+,Juniors,SBD,M,Single-ply
4,Troels Nielsen,1984,Denmark,125.1,-280,292.5,-305,292.5,220,-227.5,-227.5,220,275,285,-310,285,797.5,125+,Juniors,SBD,M,Single-ply
5,Aaron Gibes,1984,USA,171.2,265,290,305,305,175,190,197.5,197.5,277.5,292.5,-302.5,292.5,795,125+,Juniors,SBD,M,Single-ply
6,Masaharu Indo,1984,Japan,125.05,270,-295,-310,270,200,-220,-220,200,240,260,267.5,267.5,737.5,125+,Juniors,SBD,M,Single-ply
7,Andre LeBlanc,1987,USA,147.7,285,-295,295,295,182.5,192.5,-197.5,192.5,235,250,-262.5,250,737.5,125+,Juniors,SBD,M,Single-ply
8,Zoltan Herczeg,1986,Hungary,125.9,260,-280,-280,260,160,-170,190,190,200,230,-250,230,680,125+,Juniors,SBD,M,Single-ply
9,Ali Almandhari Aidh,1985,Oman,126.25,275,-282.5,-282.5,275,130,140,-150,140,220,-240,-240,220,635,125+,Juniors,SBD,M,Single-ply
DQ,Zelt Van Pletzen,1987,South Africa,135.45,-300,-300,-300,,235,240,242.5,242.5,,-280,-280,,,125+,Juniors,SBD,M,Single-ply
DQ,Gourav Sharma,1987,India,136.95,-180,-190,-190,,180,-200,-215,180,-180,,,,,125+,Juniors,SBD,M,Single-ply
DQ,Gábor Pesszer,1984,Hungary,166.3,-265,-275,-275,,195,207.5,-212.5,207.5,245,-270,-270,245,,125+,Juniors,SBD,M,Single-ply
1,Tatyana Koroleva,1986,Russia,43.65,-135,-135,135,135,65,67.5,70,70,135,142.5,-150,142.5,347.5,44,Juniors,SBD,F,Single-ply
2,Marina Poduzova,1985,Russia,43.8,127.5,-135,137.5,137.5,60,65,67.5,67.5,125,137.5,-150,137.5,342.5,44,Juniors,SBD,F,Single-ply
3,Monika Górecka,1988,Poland,39.6,80,95,105,105,60,65,70,70,50,55,65,65,240,44,Juniors,SBD,F,Single-ply
1,Oksana Pochinkina-Sokovnina,1986,Russia,47.3,-150,150,-166,150,100,-113.5,-113.5,100,130,140,-147.5,140,390,48,Juniors,SBD,F,Single-ply
2,Kristine Almroth,1988,Sweden,47.75,130,-140,140,140,55,60,62.5,62.5,135,145,150,150,352.5,48,Juniors,SBD,F,Single-ply
3,Yu Inoue,1988,Japan,46.8,110,125,-130,125,65,75,-80,75,110,120,-132.5,120,320,48,Juniors,SBD,F,Single-ply
4,Yukie Kuroda,1985,Japan,47.15,105,-115,-115,105,55,60,62.5,62.5,90,100,105,105,272.5,48,Juniors,SBD,F,Single-ply
1,Natalia Salnikova,1986,Russia,51.4,170,180,185,185,90,97.5,102.5,102.5,155,165,,165,452.5,52,Juniors,SBD,F,Single-ply
2,Megan Williams,1988,USA,50.7,130,-140,145,145,67.5,75,80,80,122.5,-130,-130,122.5,347.5,52,Juniors,SBD,F,Single-ply
3,Agnieszka Ziółkowska,1984,Poland,50.7,120,127.5,-132.5,127.5,50,57.5,60,60,130,142.5,152.5,152.5,340,52,Juniors,SBD,F,Single-ply
4,Peyshy Gian,1988,Sweden,51.7,125,135,-145,135,-70,70,-75,70,125,135,-145,135,340,52,Juniors,SBD,F,Single-ply
5,Irani Rodrigues Barbosa,1986,Brazil,51.3,132.5,140,-145,140,62.5,-70,-70,62.5,132.5,-140,-147.5,132.5,335,52,Juniors,SBD,F,Single-ply
6,Magdalena Zarzycka,1988,Poland,50.7,120,-130,135,135,57.5,60,-65,60,115,125,-137.5,125,320,52,Juniors,SBD,F,Single-ply
7,Alyssa Benkhelifa,1988,France,51.6,120,130,-135,130,55,62.5,-65,62.5,112.5,-120,120,120,312.5,52,Juniors,SBD,F,Single-ply
8,Lenaick Cocheril,1985,France,51.4,100,110,117.5,117.5,52.5,60,62.5,62.5,110,117.5,125,125,305,52,Juniors,SBD,F,Single-ply
9,Misato Okamura,1988,Japan,51.8,97.5,107.5,115,115,-57.5,62.5,-72.5,62.5,107.5,117.5,-125,117.5,295,52,Juniors,SBD,F,Single-ply
10,Mutsumi Kaneko,1986,Japan,50,95,-105,105,105,-50,50,-57.5,50,85,95,-105,95,250,52,Juniors,SBD,F,Single-ply
DQ,Wilma Shim,1988,Canada,51.6,-115,-115,-115,,30,-32.5,,30,110,122.5,135,135,,52,Juniors,SBD,F,Single-ply
1,Kateryna Klymenko,1985,Ukraine,55.75,160,170,175,175,110,115,120,120,155,165,170,170,465,56,Juniors,SBD,F,Single-ply
2,Katie Van Dusen,1988,USA,56,-152.5,157.5,-162.5,157.5,80,87.5,95,95,147.5,157.5,165,165,417.5,56,Juniors,SBD,F,Single-ply
3,Minako Kaneda,1984,Japan,52.65,120,130,135,135,80,-85,85,85,-155,-155,155,155,375,56,Juniors,SBD,F,Single-ply
4,Justyna Gertich,1986,Poland,54.85,140,145,-150,145,70,-75,-75,70,140,147.5,155,155,370,56,Juniors,SBD,F,Single-ply
5,Samantha Baker,1987,USA,55,147.5,-155,-155,147.5,70,75,-80,75,-147.5,147.5,-155,147.5,370,56,Juniors,SBD,F,Single-ply
6,Susse Hougaard,1984,Denmark,54.7,100,-120,120,120,95,-102.5,102.5,102.5,125,135,-155,135,357.5,56,Juniors,SBD,F,Single-ply
7,Lisa Basson,1984,South Africa,53.5,100,110,-117.5,110,65,70,-72.5,70,120,135,-140,135,315,56,Juniors,SBD,F,Single-ply
8,Machiko Nagasu,1985,Japan,54.3,-105,110,-120,110,52.5,60,65,65,120,135,140,140,315,56,Juniors,SBD,F,Single-ply
9,Melanie Fuglsbjerg,1986,Denmark,55.85,115,-120,-120,115,70,-75,-75,70,115,-125,125,125,310,56,Juniors,SBD,F,Single-ply
10,Tiina Salo,1988,Finland,55.35,95,-105,105,105,70,-75,-75,70,120,130,-135,130,305,56,Juniors,SBD,F,Single-ply
1,Yulia Lukina,1988,Russia,59,195,205,210,210,-130,130,-135,130,-190,190,197.5,197.5,537.5,60,Juniors,SBD,F,Single-ply
2,Eleonora Makhpirova,1986,Kazakhstan,59.4,210,222.5,225,225,110,-117.5,-117.5,110,195,-202.5,-205,195,530,60,Juniors,SBD,F,Single-ply
3,Henna Siirilä,1986,Finland,59.45,145,-152.5,152.5,152.5,80,85,-90,85,145,150,155,155,392.5,60,Juniors,SBD,F,Single-ply
4,Odile Collard,1986,France,58.8,135,142.5,150,150,72.5,-77.5,-77.5,72.5,140,150,-160,150,372.5,60,Juniors,SBD,F,Single-ply
5,Renee Kutchera,1988,USA,59.65,135,-142.5,-142.5,135,75,-77.5,-77.5,75,145,155,-165,155,365,60,Juniors,SBD,F,Single-ply
6,Susann Cichon,1987,Germany,58.4,127.5,132.5,135,135,57.5,60,62.5,62.5,140,147.5,150,150,347.5,60,Juniors,SBD,F,Single-ply
7,Charlène Chevalier,1985,France,58.95,120,125,132.5,132.5,65,70,75,75,120,130,-135,130,337.5,60,Juniors,SBD,F,Single-ply
8,Azusa Iga,1985,Japan,56.4,85,-95,100,100,85,92.5,-97.5,92.5,95,105,110,110,302.5,60,Juniors,SBD,F,Single-ply
DQ,Lisa Dugan,1984,USA,58.6,-120,125,-135,125,-92.5,-92.5,-92.5,,160,-170,-170,160,,60,Juniors,SBD,F,Single-ply
1,Yulia Medvedeva,1986,Russia,66.55,205,215,-225,215,132.5,142.5,150,150,190,207.5,-215,207.5,572.5,67.5,Juniors,SBD,F,Single-ply
2,Pamela Bartz,1987,USA,66.25,155,167.5,177.5,177.5,92.5,-97.5,97.5,97.5,155,165,170,170,445,67.5,Juniors,SBD,F,Single-ply
3,Magdalena Jablonska,1985,Poland,66.7,180,-187.5,-187.5,180,85,-90,-90,85,150,155,-157.5,155,420,67.5,Juniors,SBD,F,Single-ply
4,Lucia Christensen,1985,Sweden,66.95,-160,160,-170,160,-95,95,100,100,150,157.5,-162.5,157.5,417.5,67.5,Juniors,SBD,F,Single-ply
5,Elke Schreiber,1984,Germany,62.8,-150,150,-162.5,150,67.5,72.5,-75,72.5,140,150,-165,150,372.5,67.5,Juniors,SBD,F,Single-ply
6,Yuka Kuroyanagi,1987,Japan,62.7,125,-130,130,130,82.5,87.5,-90,87.5,145,152.5,-160,152.5,370,67.5,Juniors,SBD,F,Single-ply
DQ,Alyssa Hitchcock,1984,USA,64.85,-190,-190,-190,,-97.5,97.5,102.5,102.5,-182.5,182.5,192.5,192.5,,67.5,Juniors,SBD,F,Single-ply
1,Tetyana Akhmamyetyeva,1985,Ukraine,68,175,190,205,205,110,-115,115,115,182.5,187.5,192.5,192.5,512.5,75,Juniors,SBD,F,Single-ply
2,Hsiu-Jung Lo,1984,Taiwan,71.65,-190,190,-200,190,100,110,115,115,175,187.5,190,190,495,75,Juniors,SBD,F,Single-ply
3,Nadezhda Sindikas,1986,Russia,74.15,-205,205,215,215,-100,-100,100,100,180,-185,-185,180,495,75,Juniors,SBD,F,Single-ply
4,Rhaea Stinn,1988,Canada,73.75,175,180,187.5,187.5,115,122.5,-127.5,122.5,170,-177.5,-182.5,170,480,75,Juniors,SBD,F,Single-ply
5,Roza Hanusiak,1987,Poland,74.15,125,130,140,140,42.5,-65,65,65,140,-150,152.5,152.5,357.5,75,Juniors,SBD,F,Single-ply
6,Megumi Mano,1985,Japan,74,115,130,-140,130,55,65,72.5,72.5,120,130,142.5,142.5,345,75,Juniors,SBD,F,Single-ply
DQ,Sonja Pokkinen,1985,Finland,70.9,-160,-160,-160,,-95,-95,-95,,150,160,-165,160,,75,Juniors,SBD,F,Single-ply
DQ,Naju Arora,1987,India,73.15,-135,-140,-140,,60,-65,65,65,145,147.5,152.5,152.5,,75,Juniors,SBD,F,Single-ply
1,Wen Chang Ya,1984,Taiwan,82.5,210,-220,220,220,110,120,125,125,195,205,,205,550,82.5,Juniors,SBD,F,Single-ply
2,Monica Millet,1987,USA,82.5,165,177.5,190,190,100,107.5,110,110,175,187.5,197.5,197.5,497.5,82.5,Juniors,SBD,F,Single-ply
3,Yana Shkarupa,1986,Russia,80.2,170,180,190,190,-115,115,122.5,122.5,160,172.5,182.5,182.5,495,82.5,Juniors,SBD,F,Single-ply
4,Timea Holczinger,1986,Hungary,80.25,80,90,-95,90,80,-85,85,85,100,110,120,120,295,82.5,Juniors,SBD,F,Single-ply
DQ,Malwina Ciesielkska,1988,Poland,77.2,150,-160,160,160,85,90,100,100,-145,-145,-145,,,82.5,Juniors,SBD,F,Single-ply
DQ,E Shami,1984,India,82.2,-135,-135,-135,,65,72.5,-85,72.5,120,-127.5,-127.5,120,,82.5,Juniors,SBD,F,Single-ply
1,Liudmila Protchenko,1986,Russia,88,225,-240,-240,225,125,135,140,140,185,-195,197.5,197.5,562.5,90,Juniors,SBD,F,Single-ply
2,Leigh Arnold,1986,USA,87.5,175,190,205,205,105,110,115,115,175,187.5,-195,187.5,507.5,90,Juniors,SBD,F,Single-ply
3,Maria Johansson,1984,Sweden,86.45,180,-190,,180,125,130,-135,130,150,160,-170,160,470,90,Juniors,SBD,F,Single-ply
DQ,Sharadha Gottimukkula,1984,India,87.15,-170,-170,-170,,40,-42.5,-42.5,40,,,,,,90,Juniors,SBD,F,Single-ply
1,Olga Gemaletdinova,1986,Russia,117.05,240,260,265,265,130,140,150,150,220,240,248.5,248.5,663.5,90+,Juniors,SBD,F,Single-ply
2,Raelene Marion,1986,Canada,91.15,205,210,215,215,135,140,142.5,142.5,150,160,-167.5,160,517.5,90+,Juniors,SBD,F,Single-ply
3,Tamara Walter,1987,USA,141.25,170,182.5,-187.5,182.5,92.5,100,-107.5,100,165,177.5,-185,177.5,460,90+,Juniors,SBD,F,Single-ply
4,Yuliya Stesenko,1984,Uzbekistan,92.15,-170,172.5,-185,172.5,100,110,-112.5,110,160,175,-182.5,175,457.5,90+,Juniors,SBD,F,Single-ply
5,Ágnes Szabó,1988,Hungary,92.35,120,130,-140,130,80,-145,-150,80,120,135,-142.5,135,345,90+,Juniors,SBD,F,Single-ply
