Name,WeightClassKg,Division,Best3SquatKg,Best3BenchKg,Best3DeadliftKg,TotalKg,Sex,Event,Equipment,Place
Jo-Ann Clough,52,F-O,81.65,45.36,124.74,251.74,F,SBD,Single-ply,1
Jo-Ann Clough,52,F-M4,81.65,45.36,124.74,251.74,F,SBD,Single-ply,1
Pam Morong,56,F-O,97.52,54.43,120.2,272.16,F,SBD,Single-ply,1
Deborah Sullivan,56,F-O,90.72,49.9,131.54,272.16,F,SBD,Single-ply,2
Deborah Sullivan,56,F-M1,90.72,49.9,131.54,272.16,F,SBD,Single-ply,1
Grace Parisi,56,F-M3,95.25,43.09,115.67,254.01,F,SBD,Single-ply,1
Sheila Sullivan,67.5,F-O,136.08,65.77,127.01,328.85,F,SBD,Single-ply,1
Pam McCann,67.5,F-M1,95.25,68.04,122.47,285.76,F,SBD,Single-ply,1
Teresa Michaels-Ward,67.5,F-M1,65.77,45.36,102.06,213.19,F,SBD,Single-ply,2
Florette Ruggiero,82.5,F-O,117.93,68.04,147.42,333.39,F,SBD,Single-ply,1
Florette Ruggiero,82.5,F-M3,117.93,68.04,147.42,333.39,F,SBD,Single-ply,1
Annette Martin,90,F-SM,113.4,54.43,124.74,292.57,F,SBD,Single-ply,1
Mike Petracca,67.5,M-Jr,192.78,124.74,190.51,508.02,M,SBD,Single-ply,1
Mike Petracca,67.5,M-O,192.78,124.74,190.51,508.02,M,SBD,Single-ply,1
Ryan Urso,67.5,M-O,158.76,136.08,181.44,476.27,M,SBD,Single-ply,2
Lev Epshteyn,67.5,M-M6,140.61,90.72,201.85,433.18,M,SBD,Single-ply,1
George Rodriguez,67.5,M-T2,142.88,90.72,142.88,376.48,M,SBD,Single-ply,1
Marc Fortier,67.5,M-T2,113.4,68.04,113.4,294.84,M,SBD,Single-ply,2
Mike Dube,67.5,M-O,,,,,M,SBD,Single-ply,DQ
Sean DiCataldo,75,M-O,265.35,163.29,272.16,700.8,M,SBD,Single-ply,1
Shawn DiCataldo,75,M-SM,265.35,163.29,272.16,700.8,M,SBD,Single-ply,1
Gene Marshall,75,M-O,249.48,176.9,251.74,678.12,M,SBD,Single-ply,2
Gene Marshall,75,M-SM,249.48,176.9,251.74,678.12,M,SBD,Single-ply,2
Jerry Hill,75,M-O,231.33,149.69,226.8,607.81,M,SBD,Single-ply,3
Edil DeLeon,75,M-O,213.19,124.74,238.14,576.06,M,SBD,Single-ply,4
Ari Shocket,75,M-O,185.97,154.22,235.87,576.06,M,SBD,Single-ply,5
Matt Vail,75,M-O,185.97,163.29,219.99,569.26,M,SBD,Single-ply,6
Eric Codeiro,75,M-O,215.46,127.01,192.78,535.24,M,SBD,Single-ply,7
Chip McCann,75,M-M2,158.76,131.54,199.58,489.88,M,SBD,Single-ply,1
Kenneth Buddle,75,M-M2,199.58,95.25,181.44,476.27,M,SBD,Single-ply,2
Ray Thibault,75,M-SM,149.69,154.22,163.29,467.2,M,SBD,Single-ply,3
Dean Fragola,75,M-Jr,156.49,115.67,167.83,439.98,M,SBD,Single-ply,1
Don Hilton,75,M-T1,127.01,97.52,158.76,383.29,M,SBD,Single-ply,1
George Najemy,75,M-M4,90.72,77.11,140.61,308.44,M,SBD,Single-ply,1
Emile LaCarte,75,M-O,201.85,,,,M,SBD,Single-ply,DQ
Alex Yvars,82.5,M-M1,272.16,149.69,281.23,703.07,M,SBD,Single-ply,1
Joe Ascani,82.5,M-O,249.48,165.56,276.69,691.73,M,SBD,Single-ply,1
Jason Nickerson,82.5,M-O,265.35,163.29,235.87,664.51,M,SBD,Single-ply,2
Anthony Biasetti,82.5,M-O,263.08,151.95,242.67,657.71,M,SBD,Single-ply,3
Mike Twitchell,82.5,M-O,226.8,158.76,249.48,635.03,M,SBD,Single-ply,4
Ray Dunn,82.5,M-O,204.12,145.15,204.12,553.38,M,SBD,Single-ply,5
Dan Poulos,82.5,M-Jr,181.44,120.2,226.8,528.44,M,SBD,Single-ply,1
Mike Yontz,82.5,M-SO,183.7,138.35,204.12,526.17,M,SBD,Single-ply,1
Kevin Takierski,82.5,M-M3,188.24,115.67,208.65,512.56,M,SBD,Single-ply,1
Sam Alba Jr,82.5,M-O,181.44,136.08,192.78,510.29,M,SBD,Single-ply,6
Robert Veat,82.5,M-O,183.7,124.74,183.7,492.15,M,SBD,Single-ply,7
Eric Tomolillo,82.5,M-T3,149.69,81.65,149.69,381.02,M,SBD,Single-ply,1
Simon Slaven,82.5,M-M2,179.17,111.13,,,M,SBD,Single-ply,DQ
John Pyrez,82.5,M-Jr,172.37,,,,M,SBD,Single-ply,DQ
Mike Campbell,90,M-O,258.55,185.97,258.55,703.07,M,SBD,Single-ply,1
Mike Campbell,90,M-Jr,258.55,185.97,258.55,703.07,M,SBD,Single-ply,1
Mike Laliberte,90,M-O,276.69,174.63,226.8,678.12,M,SBD,Single-ply,2
Jim Ford,90,M-O,238.14,167.83,263.08,669.05,M,SBD,Single-ply,3
Kevin Rossi,90,M-M1,226.8,190.51,217.72,635.03,M,SBD,Single-ply,1
George Sousa,90,M-O,226.8,156.49,247.21,630.49,M,SBD,Single-ply,4
Rick Johnson,90,M-O,217.72,136.08,263.08,616.89,M,SBD,Single-ply,5
Rick Johnson,90,M-SM,217.72,136.08,263.08,616.89,M,SBD,Single-ply,1
Bruce Topol,90,M-M2,185.97,158.76,197.31,542.04,M,SBD,Single-ply,1
Keith Gilbert,90,M-O,185.97,115.67,192.78,494.42,M,SBD,Single-ply,6
Keith Gilbert,90,M-Jr,185.97,115.67,192.78,494.42,M,SBD,Single-ply,2
Jacob Carpenter,90,M-Jr,172.37,147.42,172.37,492.15,M,SBD,Single-ply,3
Martin Sheehan,90,M-M2,138.35,92.99,170.1,401.43,M,SBD,Single-ply,2
Lance Reardon,100,M-O,285.76,163.29,265.35,714.41,M,SBD,Single-ply,1
John Reber,100,M-O,226.8,185.97,276.69,689.46,M,SBD,Single-ply,2
Jeff Hughes,100,M-O,258.55,176.9,249.48,684.92,M,SBD,Single-ply,3
John Poremba,100,M-Jr,238.14,145.15,272.16,655.44,M,SBD,Single-ply,1
Rene Moyen,100,M-O,238.14,161.03,249.48,648.64,M,SBD,Single-ply,4
Aaron Czysz,100,M-O,217.72,163.29,231.33,612.35,M,SBD,Single-ply,5
Mike Galicki,100,M-O,235.87,124.74,238.14,598.74,M,SBD,Single-ply,6
Nicholas Smith,100,M-Jr,215.46,122.47,258.55,596.47,M,SBD,Single-ply,2
Tim Sexton,100,M-M1,204.12,151.95,226.8,582.87,M,SBD,Single-ply,1
John Medeiros,100,M-M4,206.38,151.95,201.85,560.19,M,SBD,Single-ply,1
James Foley,100,M-O,206.38,124.74,226.8,557.92,M,SBD,Single-ply,7
Raymond Bigrow,100,M-M3,206.38,142.88,204.12,553.38,M,SBD,Single-ply,1
Fred Perry,100,M-O,188.24,124.74,226.8,539.77,M,SBD,Single-ply,8
Brian Furgola,100,M-Jr,156.49,156.49,208.65,521.63,M,SBD,Single-ply,3
George Peterson,100,M-O,181.44,136.08,204.12,521.63,M,SBD,Single-ply,9
Matthew Kardock,100,M-SO,,70.31,95.25,,M,SBD,Single-ply,DQ
Phil Najemy,110,M-Jr,249.48,149.69,272.16,671.32,M,SBD,Single-ply,1
James Krajewski,110,M-O,226.8,163.29,226.8,616.89,M,SBD,Single-ply,1
Robert Troon,110,M-O,195.04,172.37,204.12,571.53,M,SBD,Single-ply,2
Ryan Luchka,110,M-O,195.04,154.22,204.12,553.38,M,SBD,Single-ply,3
Phil Berrio,110,M-M2,190.51,117.93,217.72,526.17,M,SBD,Single-ply,1
Shang Chou,110,M-Jr,215.46,174.63,,,M,SBD,Single-ply,DQ
Seth Reardon,110,M-SO,,95.25,,,M,SBD,Single-ply,DQ
Glenn Russo,125,M-O,333.39,222.26,272.16,827.81,M,SBD,Single-ply,1
James Toland,125,M-O,285.76,226.8,294.84,807.39,M,SBD,Single-ply,2
Joe Peters,125,M-O,272.16,190.51,272.16,734.82,M,SBD,Single-ply,3
Joe Peters,125,M-Jr,272.16,190.51,272.16,734.82,M,SBD,Single-ply,1
Scott Braley,125+,M-O,274.42,181.44,272.16,728.02,M,SBD,Single-ply,1
Scott Braley,125+,M-M1,274.42,181.44,272.16,728.02,M,SBD,Single-ply,1
Guy Ziriak,125+,M-O,288.03,192.78,226.8,707.6,M,SBD,Single-ply,2
